%YAML 1.1
%TAG !u! tag:unity3d.com,2011:
--- !u!47 &1
QualitySettings:
  m_ObjectHideFlags: 0
  serializedVersion: 5
  m_CurrentQuality: 0
  m_QualitySettings:
  - serializedVersion: 2
    name: JustEnjoyMan
    pixelLightCount: 4
    shadows: 2
    shadowResolution: 2
    shadowProjection: 1
    shadowCascades: 4
    shadowDistance: 150
    blendWeights: 4
    textureQuality: 0
    anisotropicTextures: 2
    antiAliasing: 2
    softParticles: 1
    softVegetation: 1
    vSyncCount: 1
    lodBias: 2
    maximumLODLevel: 0
    particleRaycastBudget: 4096
    excludedTargetPlatforms:
    - iPhone
    - Android
    - FlashPlayer
    - BlackBerry
    - Windows Store Apps
    - WP8
  m_PerPlatformDefaultQuality:
    Android: 2
    BlackBerry: 0
    FlashPlayer: 3
    GLES Emulation: 3
    PS3: 3
    Standalone: 3
    WP8: 0
    Web: 3
    Wii: 3
    Windows Store Apps: 0
    XBOX360: 3
    iPhone: 2
